<svg xmlns="http://www.w3.org/2000/svg" height="225" width="1225" version="1.1" xmlns:xlink="http://www.w3.org/1999/xlink">
 <desc>Wang tiling exported by tiling_optimizer</desc>
 <defs>
  <g id="0">
   <rect height="15" width="60" y="0" x="20" fill="rgb(96.552273,96.552273,216.750000)"/>
   <rect height="15" width="60" y="85" x="20" fill="rgb(191.250000,191.250000,93.886364)"/>
   <rect height="60" width="15" y="20" x="0" fill="rgb(242.250000,96.900000,96.900000)"/>
   <rect height="60" width="15" y="20" x="85" fill="rgb(96.552273,96.552273,216.750000)"/>
   <rect height="100" width="1" y="0" x="0"/>
   <rect height="1" width="100" y="0" x="0"/>
   <rect height="100" width="1" y="0" x="99"/>
   <rect height="1" width="100" y="99" x="0"/>
  </g>
  <g id="1">
   <rect height="15" width="60" y="0" x="20" fill="rgb(96.552273,96.552273,216.750000)"/>
   <rect height="15" width="60" y="85" x="20" fill="rgb(96.552273,96.552273,216.750000)"/>
   <rect height="60" width="15" y="20" x="0" fill="rgb(242.250000,96.900000,96.900000)"/>
   <rect height="60" width="15" y="20" x="85" fill="rgb(191.250000,191.250000,93.886364)"/>
   <rect height="100" width="1" y="0" x="0"/>
   <rect height="1" width="100" y="0" x="0"/>
   <rect height="100" width="1" y="0" x="99"/>
   <rect height="1" width="100" y="99" x="0"/>
  </g>
  <g id="2">
   <rect height="15" width="60" y="0" x="20" fill="rgb(96.552273,96.552273,216.750000)"/>
   <rect height="15" width="60" y="85" x="20" fill="rgb(191.250000,191.250000,93.886364)"/>
   <rect height="60" width="15" y="20" x="0" fill="rgb(96.552273,96.552273,216.750000)"/>
   <rect height="60" width="15" y="20" x="85" fill="rgb(191.250000,191.250000,93.886364)"/>
   <rect height="100" width="1" y="0" x="0"/>
   <rect height="1" width="100" y="0" x="0"/>
   <rect height="100" width="1" y="0" x="99"/>
   <rect height="1" width="100" y="99" x="0"/>
  </g>
  <g id="3">
   <rect height="15" width="60" y="0" x="20" fill="rgb(242.250000,96.900000,96.900000)"/>
   <rect height="15" width="60" y="85" x="20" fill="rgb(96.552273,96.552273,216.750000)"/>
   <rect height="60" width="15" y="20" x="0" fill="rgb(96.552273,96.552273,216.750000)"/>
   <rect height="60" width="15" y="20" x="85" fill="rgb(242.250000,96.900000,96.900000)"/>
   <rect height="100" width="1" y="0" x="0"/>
   <rect height="1" width="100" y="0" x="0"/>
   <rect height="100" width="1" y="0" x="99"/>
   <rect height="1" width="100" y="99" x="0"/>
  </g>
  <g id="4">
   <rect height="15" width="60" y="0" x="20" fill="rgb(242.250000,96.900000,96.900000)"/>
   <rect height="15" width="60" y="85" x="20" fill="rgb(191.250000,191.250000,93.886364)"/>
   <rect height="60" width="15" y="20" x="0" fill="rgb(191.250000,191.250000,93.886364)"/>
   <rect height="60" width="15" y="20" x="85" fill="rgb(242.250000,96.900000,96.900000)"/>
   <rect height="100" width="1" y="0" x="0"/>
   <rect height="1" width="100" y="0" x="0"/>
   <rect height="100" width="1" y="0" x="99"/>
   <rect height="1" width="100" y="99" x="0"/>
  </g>
  <g id="5">
   <rect height="15" width="60" y="0" x="20" fill="rgb(242.250000,96.900000,96.900000)"/>
   <rect height="15" width="60" y="85" x="20" fill="rgb(96.552273,96.552273,216.750000)"/>
   <rect height="60" width="15" y="20" x="0" fill="rgb(191.250000,191.250000,93.886364)"/>
   <rect height="60" width="15" y="20" x="85" fill="rgb(96.552273,96.552273,216.750000)"/>
   <rect height="100" width="1" y="0" x="0"/>
   <rect height="1" width="100" y="0" x="0"/>
   <rect height="100" width="1" y="0" x="99"/>
   <rect height="1" width="100" y="99" x="0"/>
  </g>
  <g id="6">
   <rect height="15" width="60" y="0" x="20" fill="rgb(165.750000,88.902273,165.750000)"/>
   <rect height="15" width="60" y="85" x="20" fill="rgb(242.250000,96.900000,96.900000)"/>
   <rect height="60" width="15" y="20" x="0" fill="rgb(165.750000,88.902273,165.750000)"/>
   <rect height="60" width="15" y="20" x="85" fill="rgb(165.750000,88.902273,165.750000)"/>
   <rect height="100" width="1" y="0" x="0"/>
   <rect height="1" width="100" y="0" x="0"/>
   <rect height="100" width="1" y="0" x="99"/>
   <rect height="1" width="100" y="99" x="0"/>
  </g>
  <g id="7">
   <rect height="15" width="60" y="0" x="20" fill="rgb(191.250000,191.250000,93.886364)"/>
   <rect height="15" width="60" y="85" x="20" fill="rgb(96.552273,96.552273,216.750000)"/>
   <rect height="60" width="15" y="20" x="0" fill="rgb(165.750000,88.902273,165.750000)"/>
   <rect height="60" width="15" y="20" x="85" fill="rgb(165.750000,88.902273,165.750000)"/>
   <rect height="100" width="1" y="0" x="0"/>
   <rect height="1" width="100" y="0" x="0"/>
   <rect height="100" width="1" y="0" x="99"/>
   <rect height="1" width="100" y="99" x="0"/>
  </g>
  <g id="8">
   <rect height="15" width="60" y="0" x="20" fill="rgb(96.552273,96.552273,216.750000)"/>
   <rect height="15" width="60" y="85" x="20" fill="rgb(242.250000,96.900000,96.900000)"/>
   <rect height="60" width="15" y="20" x="0" fill="rgb(165.750000,88.902273,165.750000)"/>
   <rect height="60" width="15" y="20" x="85" fill="rgb(140.945455,242.250000,242.250000)"/>
   <rect height="100" width="1" y="0" x="0"/>
   <rect height="1" width="100" y="0" x="0"/>
   <rect height="100" width="1" y="0" x="99"/>
   <rect height="1" width="100" y="99" x="0"/>
  </g>
  <g id="9">
   <rect height="15" width="60" y="0" x="20" fill="rgb(96.552273,96.552273,216.750000)"/>
   <rect height="15" width="60" y="85" x="20" fill="rgb(165.750000,88.902273,165.750000)"/>
   <rect height="60" width="15" y="20" x="0" fill="rgb(165.750000,88.902273,165.750000)"/>
   <rect height="60" width="15" y="20" x="85" fill="rgb(140.945455,242.250000,242.250000)"/>
   <rect height="100" width="1" y="0" x="0"/>
   <rect height="1" width="100" y="0" x="0"/>
   <rect height="100" width="1" y="0" x="99"/>
   <rect height="1" width="100" y="99" x="0"/>
  </g>
  <g id="10">
   <rect height="15" width="60" y="0" x="20" fill="rgb(191.250000,191.250000,93.886364)"/>
   <rect height="15" width="60" y="85" x="20" fill="rgb(96.552273,96.552273,216.750000)"/>
   <rect height="60" width="15" y="20" x="0" fill="rgb(140.945455,242.250000,242.250000)"/>
   <rect height="60" width="15" y="20" x="85" fill="rgb(140.945455,242.250000,242.250000)"/>
   <rect height="100" width="1" y="0" x="0"/>
   <rect height="1" width="100" y="0" x="0"/>
   <rect height="100" width="1" y="0" x="99"/>
   <rect height="1" width="100" y="99" x="0"/>
  </g>
  <g id="11">
   <rect height="15" width="60" y="0" x="20" fill="rgb(96.552273,96.552273,216.750000)"/>
   <rect height="15" width="60" y="85" x="20" fill="rgb(96.552273,96.552273,216.750000)"/>
   <rect height="60" width="15" y="20" x="0" fill="rgb(140.945455,242.250000,242.250000)"/>
   <rect height="60" width="15" y="20" x="85" fill="rgb(165.750000,88.902273,165.750000)"/>
   <rect height="100" width="1" y="0" x="0"/>
   <rect height="1" width="100" y="0" x="0"/>
   <rect height="100" width="1" y="0" x="99"/>
   <rect height="1" width="100" y="99" x="0"/>
  </g>
 </defs>
 <use y="0.000000" x="0.000000" xlink:href="#0"/>
 <use y="0.000000" x="125.000000" xlink:href="#1"/>
 <use y="0.000000" x="250.000000" xlink:href="#2"/>
 <use y="0.000000" x="375.000000" xlink:href="#3"/>
 <use y="0.000000" x="500.000000" xlink:href="#4"/>
 <use y="0.000000" x="625.000000" xlink:href="#5"/>
 <use y="0.000000" x="750.000000" xlink:href="#6"/>
 <use y="0.000000" x="875.000000" xlink:href="#7"/>
 <use y="0.000000" x="1000.000000" xlink:href="#8"/>
 <use y="0.000000" x="1125.000000" xlink:href="#9"/>
 <use y="125.000000" x="0.000000" xlink:href="#10"/>
 <use y="125.000000" x="125.000000" xlink:href="#11"/>
</svg>
