<svg xmlns="http://www.w3.org/2000/svg" height="225" width="1225" version="1.1">
 <desc>Wang tiling exported by tiling_optimizer</desc>
 <rect height="15" width="60" y="0" x="20" fill="rgb(242.250000,96.900000,96.900000)"/>
 <rect height="15" width="60" y="85" x="20" fill="rgb(191.250000,191.250000,93.886364)"/>
 <rect height="60" width="15" y="20" x="0" fill="rgb(96.552273,96.552273,216.750000)"/>
 <rect height="60" width="15" y="20" x="85" fill="rgb(191.250000,191.250000,93.886364)"/>
 <g>
  <rect height="100" width="1" y="0" x="0"/>
  <rect height="1" width="100" y="0" x="0"/>
  <rect height="100" width="1" y="0" x="99"/>
  <rect height="1" width="100" y="99" x="0"/>
 </g>
 <rect height="15" width="60" y="0" x="145" fill="rgb(191.250000,191.250000,93.886364)"/>
 <g fill="rgb(96.552273,96.552273,216.750000)">
  <rect height="15" width="60" y="85" x="145"/>
  <rect height="60" width="15" y="20" x="125"/>
  <rect height="60" width="15" y="20" x="210"/>
 </g>
 <g>
  <rect height="100" width="1" y="0" x="125"/>
  <rect height="1" width="100" y="0" x="125"/>
  <rect height="100" width="1" y="0" x="224"/>
  <rect height="1" width="100" y="99" x="125"/>
 </g>
 <rect height="15" width="60" y="0" x="270" fill="rgb(96.552273,96.552273,216.750000)"/>
 <rect height="15" width="60" y="85" x="270" fill="rgb(191.250000,191.250000,93.886364)"/>
 <rect height="60" width="15" y="20" x="250" fill="rgb(242.250000,96.900000,96.900000)"/>
 <rect height="60" width="15" y="20" x="335" fill="rgb(165.750000,88.902273,165.750000)"/>
 <g>
  <rect height="100" width="1" y="0" x="250"/>
  <rect height="1" width="100" y="0" x="250"/>
  <rect height="100" width="1" y="0" x="349"/>
  <rect height="1" width="100" y="99" x="250"/>
 </g>
 <rect height="15" width="60" y="0" x="395" fill="rgb(96.552273,96.552273,216.750000)"/>
 <rect height="15" width="60" y="85" x="395" fill="rgb(191.250000,191.250000,93.886364)"/>
 <rect height="60" width="15" y="20" x="375" fill="rgb(165.750000,88.902273,165.750000)"/>
 <rect height="60" width="15" y="20" x="460" fill="rgb(140.945455,242.250000,242.250000)"/>
 <g>
  <rect height="100" width="1" y="0" x="375"/>
  <rect height="1" width="100" y="0" x="375"/>
  <rect height="100" width="1" y="0" x="474"/>
  <rect height="1" width="100" y="99" x="375"/>
 </g>
 <rect height="15" width="60" y="0" x="520" fill="rgb(96.552273,96.552273,216.750000)"/>
 <rect height="15" width="60" y="85" x="520" fill="rgb(191.250000,191.250000,93.886364)"/>
 <rect height="60" width="15" y="20" x="500" fill="rgb(140.945455,242.250000,242.250000)"/>
 <rect height="60" width="15" y="20" x="585" fill="rgb(216.750000,216.750000,135.961364)"/>
 <g>
  <rect height="100" width="1" y="0" x="500"/>
  <rect height="1" width="100" y="0" x="500"/>
  <rect height="100" width="1" y="0" x="599"/>
  <rect height="1" width="100" y="99" x="500"/>
 </g>
 <rect height="15" width="60" y="0" x="645" fill="rgb(96.552273,96.552273,216.750000)"/>
 <rect height="15" width="60" y="85" x="645" fill="rgb(96.552273,96.552273,216.750000)"/>
 <rect height="60" width="15" y="20" x="625" fill="rgb(140.945455,242.250000,242.250000)"/>
 <rect height="60" width="15" y="20" x="710" fill="rgb(242.250000,96.900000,96.900000)"/>
 <g>
  <rect height="100" width="1" y="0" x="625"/>
  <rect height="1" width="100" y="0" x="625"/>
  <rect height="100" width="1" y="0" x="724"/>
  <rect height="1" width="100" y="99" x="625"/>
 </g>
 <rect height="15" width="60" y="0" x="770" fill="rgb(96.552273,96.552273,216.750000)"/>
 <rect height="15" width="60" y="85" x="770" fill="rgb(96.552273,96.552273,216.750000)"/>
 <rect height="60" width="15" y="20" x="750" fill="rgb(216.750000,216.750000,135.961364)"/>
 <rect height="60" width="15" y="20" x="835" fill="rgb(165.750000,88.902273,165.750000)"/>
 <g>
  <rect height="100" width="1" y="0" x="750"/>
  <rect height="1" width="100" y="0" x="750"/>
  <rect height="100" width="1" y="0" x="849"/>
  <rect height="1" width="100" y="99" x="750"/>
 </g>
 <rect height="15" width="60" y="0" x="895" fill="rgb(191.250000,191.250000,93.886364)"/>
 <rect height="15" width="60" y="85" x="895" fill="rgb(191.250000,191.250000,93.886364)"/>
 <rect height="60" width="15" y="20" x="875" fill="rgb(165.750000,88.902273,165.750000)"/>
 <rect height="60" width="15" y="20" x="960" fill="rgb(242.250000,96.900000,96.900000)"/>
 <g>
  <rect height="100" width="1" y="0" x="875"/>
  <rect height="1" width="100" y="0" x="875"/>
  <rect height="100" width="1" y="0" x="974"/>
  <rect height="1" width="100" y="99" x="875"/>
 </g>
 <rect height="15" width="60" y="0" x="1020" fill="rgb(191.250000,191.250000,93.886364)"/>
 <rect height="15" width="60" y="85" x="1020" fill="rgb(191.250000,191.250000,93.886364)"/>
 <rect height="60" width="15" y="20" x="1e3" fill="rgb(140.945455,242.250000,242.250000)"/>
 <rect height="60" width="15" y="20" x="1085" fill="rgb(165.750000,88.902273,165.750000)"/>
 <g>
  <rect height="100" width="1" y="0" x="1e3"/>
  <rect height="1" width="100" y="0" x="1e3"/>
  <rect height="100" width="1" y="0" x="1099"/>
  <rect height="1" width="100" y="99" x="1e3"/>
 </g>
 <rect height="15" width="60" y="0" x="1145" fill="rgb(191.250000,191.250000,93.886364)"/>
 <rect height="15" width="60" y="85" x="1145" fill="rgb(191.250000,191.250000,93.886364)"/>
 <rect height="60" width="15" y="20" x="1125" fill="rgb(216.750000,216.750000,135.961364)"/>
 <rect height="60" width="15" y="20" x="1210" fill="rgb(140.945455,242.250000,242.250000)"/>
 <g>
  <rect height="100" width="1" y="0" x="1125"/>
  <rect height="1" width="100" y="0" x="1125"/>
  <rect height="100" width="1" y="0" x="1224"/>
  <rect height="1" width="100" y="99" x="1125"/>
 </g>
 <rect height="15" width="60" y="125" x="20" fill="rgb(191.250000,191.250000,93.886364)"/>
 <rect height="15" width="60" y="210" x="20" fill="rgb(242.250000,96.900000,96.900000)"/>
 <rect height="60" width="15" y="145" x="0" fill="rgb(242.250000,96.900000,96.900000)"/>
 <rect height="60" width="15" y="145" x="85" fill="rgb(140.945455,242.250000,242.250000)"/>
 <g>
  <rect height="100" width="1" y="125" x="0"/>
  <rect height="1" width="100" y="125" x="0"/>
  <rect height="100" width="1" y="125" x="99"/>
  <rect height="1" width="100" y="224" x="0"/>
 </g>
 <rect height="15" width="60" y="125" x="145" fill="rgb(191.250000,191.250000,93.886364)"/>
 <rect height="15" width="60" y="210" x="145" fill="rgb(242.250000,96.900000,96.900000)"/>
 <rect height="60" width="15" y="145" x="125" fill="rgb(165.750000,88.902273,165.750000)"/>
 <rect height="60" width="15" y="145" x="210" fill="rgb(216.750000,216.750000,135.961364)"/>
 <g>
  <rect height="100" width="1" y="125" x="125"/>
  <rect height="1" width="100" y="125" x="125"/>
  <rect height="100" width="1" y="125" x="224"/>
  <rect height="1" width="100" y="224" x="125"/>
 </g>
 <rect height="15" width="60" y="125" x="270" fill="rgb(191.250000,191.250000,93.886364)"/>
 <rect height="15" width="60" y="210" x="270" fill="rgb(96.552273,96.552273,216.750000)"/>
 <rect height="60" width="15" y="145" x="250" fill="rgb(191.250000,191.250000,93.886364)"/>
 <rect height="60" width="15" y="145" x="335" fill="rgb(191.250000,191.250000,93.886364)"/>
 <g>
  <rect height="100" width="1" y="125" x="250"/>
  <rect height="1" width="100" y="125" x="250"/>
  <rect height="100" width="1" y="125" x="349"/>
  <rect height="1" width="100" y="224" x="250"/>
 </g>
 <g fill="rgb(191.250000,191.250000,93.886364)">
  <rect height="15" width="60" y="125" x="395"/>
  <rect height="15" width="60" y="210" x="395"/>
  <rect height="60" width="15" y="145" x="375"/>
 </g>
 <rect height="60" width="15" y="145" x="460" fill="rgb(96.552273,96.552273,216.750000)"/>
 <g>
  <rect height="100" width="1" y="125" x="375"/>
  <rect height="1" width="100" y="125" x="375"/>
  <rect height="100" width="1" y="125" x="474"/>
  <rect height="1" width="100" y="224" x="375"/>
 </g>
</svg>
