<svg xmlns="http://www.w3.org/2000/svg" height="900" width="900" version="1.1" xmlns:xlink="http://www.w3.org/1999/xlink">
 <desc>Wang tiling exported by tiling_optimizer</desc>
 <defs>
  <g id="0">
   <rect height="15" width="60" y="0" x="20" fill="rgb(242.250000,96.900000,96.900000)"/>
   <rect height="15" width="60" y="85" x="20" fill="rgb(242.250000,96.900000,96.900000)"/>
   <rect height="60" width="15" y="20" x="0" fill="rgb(242.250000,96.900000,96.900000)"/>
   <rect height="60" width="15" y="20" x="85" fill="rgb(242.250000,96.900000,96.900000)"/>
   <rect height="100" width="1" y="0" x="0"/>
   <rect height="1" width="100" y="0" x="0"/>
   <rect height="100" width="1" y="0" x="99"/>
   <rect height="1" width="100" y="99" x="0"/>
  </g>
  <g id="1">
   <rect height="15" width="60" y="0" x="20" fill="rgb(242.250000,96.900000,96.900000)"/>
   <rect height="15" width="60" y="85" x="20" fill="rgb(242.250000,96.900000,96.900000)"/>
   <rect height="60" width="15" y="20" x="0" fill="rgb(242.250000,96.900000,96.900000)"/>
   <rect height="60" width="15" y="20" x="85" fill="rgb(96.552273,96.552273,216.750000)"/>
   <rect height="100" width="1" y="0" x="0"/>
   <rect height="1" width="100" y="0" x="0"/>
   <rect height="100" width="1" y="0" x="99"/>
   <rect height="1" width="100" y="99" x="0"/>
  </g>
  <g id="2">
   <rect height="15" width="60" y="0" x="20" fill="rgb(242.250000,96.900000,96.900000)"/>
   <rect height="15" width="60" y="85" x="20" fill="rgb(242.250000,96.900000,96.900000)"/>
   <rect height="60" width="15" y="20" x="0" fill="rgb(242.250000,96.900000,96.900000)"/>
   <rect height="60" width="15" y="20" x="85" fill="rgb(191.250000,191.250000,93.886364)"/>
   <rect height="100" width="1" y="0" x="0"/>
   <rect height="1" width="100" y="0" x="0"/>
   <rect height="100" width="1" y="0" x="99"/>
   <rect height="1" width="100" y="99" x="0"/>
  </g>
  <g id="3">
   <rect height="15" width="60" y="0" x="20" fill="rgb(242.250000,96.900000,96.900000)"/>
   <rect height="15" width="60" y="85" x="20" fill="rgb(96.552273,96.552273,216.750000)"/>
   <rect height="60" width="15" y="20" x="0" fill="rgb(242.250000,96.900000,96.900000)"/>
   <rect height="60" width="15" y="20" x="85" fill="rgb(242.250000,96.900000,96.900000)"/>
   <rect height="100" width="1" y="0" x="0"/>
   <rect height="1" width="100" y="0" x="0"/>
   <rect height="100" width="1" y="0" x="99"/>
   <rect height="1" width="100" y="99" x="0"/>
  </g>
  <g id="4">
   <rect height="15" width="60" y="0" x="20" fill="rgb(242.250000,96.900000,96.900000)"/>
   <rect height="15" width="60" y="85" x="20" fill="rgb(96.552273,96.552273,216.750000)"/>
   <rect height="60" width="15" y="20" x="0" fill="rgb(242.250000,96.900000,96.900000)"/>
   <rect height="60" width="15" y="20" x="85" fill="rgb(96.552273,96.552273,216.750000)"/>
   <rect height="100" width="1" y="0" x="0"/>
   <rect height="1" width="100" y="0" x="0"/>
   <rect height="100" width="1" y="0" x="99"/>
   <rect height="1" width="100" y="99" x="0"/>
  </g>
  <g id="5">
   <rect height="15" width="60" y="0" x="20" fill="rgb(242.250000,96.900000,96.900000)"/>
   <rect height="15" width="60" y="85" x="20" fill="rgb(96.552273,96.552273,216.750000)"/>
   <rect height="60" width="15" y="20" x="0" fill="rgb(242.250000,96.900000,96.900000)"/>
   <rect height="60" width="15" y="20" x="85" fill="rgb(191.250000,191.250000,93.886364)"/>
   <rect height="100" width="1" y="0" x="0"/>
   <rect height="1" width="100" y="0" x="0"/>
   <rect height="100" width="1" y="0" x="99"/>
   <rect height="1" width="100" y="99" x="0"/>
  </g>
  <g id="6">
   <rect height="15" width="60" y="0" x="20" fill="rgb(242.250000,96.900000,96.900000)"/>
   <rect height="15" width="60" y="85" x="20" fill="rgb(191.250000,191.250000,93.886364)"/>
   <rect height="60" width="15" y="20" x="0" fill="rgb(242.250000,96.900000,96.900000)"/>
   <rect height="60" width="15" y="20" x="85" fill="rgb(242.250000,96.900000,96.900000)"/>
   <rect height="100" width="1" y="0" x="0"/>
   <rect height="1" width="100" y="0" x="0"/>
   <rect height="100" width="1" y="0" x="99"/>
   <rect height="1" width="100" y="99" x="0"/>
  </g>
  <g id="7">
   <rect height="15" width="60" y="0" x="20" fill="rgb(242.250000,96.900000,96.900000)"/>
   <rect height="15" width="60" y="85" x="20" fill="rgb(191.250000,191.250000,93.886364)"/>
   <rect height="60" width="15" y="20" x="0" fill="rgb(242.250000,96.900000,96.900000)"/>
   <rect height="60" width="15" y="20" x="85" fill="rgb(96.552273,96.552273,216.750000)"/>
   <rect height="100" width="1" y="0" x="0"/>
   <rect height="1" width="100" y="0" x="0"/>
   <rect height="100" width="1" y="0" x="99"/>
   <rect height="1" width="100" y="99" x="0"/>
  </g>
  <g id="8">
   <rect height="15" width="60" y="0" x="20" fill="rgb(242.250000,96.900000,96.900000)"/>
   <rect height="15" width="60" y="85" x="20" fill="rgb(191.250000,191.250000,93.886364)"/>
   <rect height="60" width="15" y="20" x="0" fill="rgb(242.250000,96.900000,96.900000)"/>
   <rect height="60" width="15" y="20" x="85" fill="rgb(191.250000,191.250000,93.886364)"/>
   <rect height="100" width="1" y="0" x="0"/>
   <rect height="1" width="100" y="0" x="0"/>
   <rect height="100" width="1" y="0" x="99"/>
   <rect height="1" width="100" y="99" x="0"/>
  </g>
  <g id="9">
   <rect height="15" width="60" y="0" x="20" fill="rgb(242.250000,96.900000,96.900000)"/>
   <rect height="15" width="60" y="85" x="20" fill="rgb(242.250000,96.900000,96.900000)"/>
   <rect height="60" width="15" y="20" x="0" fill="rgb(96.552273,96.552273,216.750000)"/>
   <rect height="60" width="15" y="20" x="85" fill="rgb(242.250000,96.900000,96.900000)"/>
   <rect height="100" width="1" y="0" x="0"/>
   <rect height="1" width="100" y="0" x="0"/>
   <rect height="100" width="1" y="0" x="99"/>
   <rect height="1" width="100" y="99" x="0"/>
  </g>
  <g id="10">
   <rect height="15" width="60" y="0" x="20" fill="rgb(242.250000,96.900000,96.900000)"/>
   <rect height="15" width="60" y="85" x="20" fill="rgb(242.250000,96.900000,96.900000)"/>
   <rect height="60" width="15" y="20" x="0" fill="rgb(96.552273,96.552273,216.750000)"/>
   <rect height="60" width="15" y="20" x="85" fill="rgb(96.552273,96.552273,216.750000)"/>
   <rect height="100" width="1" y="0" x="0"/>
   <rect height="1" width="100" y="0" x="0"/>
   <rect height="100" width="1" y="0" x="99"/>
   <rect height="1" width="100" y="99" x="0"/>
  </g>
  <g id="11">
   <rect height="15" width="60" y="0" x="20" fill="rgb(242.250000,96.900000,96.900000)"/>
   <rect height="15" width="60" y="85" x="20" fill="rgb(242.250000,96.900000,96.900000)"/>
   <rect height="60" width="15" y="20" x="0" fill="rgb(96.552273,96.552273,216.750000)"/>
   <rect height="60" width="15" y="20" x="85" fill="rgb(191.250000,191.250000,93.886364)"/>
   <rect height="100" width="1" y="0" x="0"/>
   <rect height="1" width="100" y="0" x="0"/>
   <rect height="100" width="1" y="0" x="99"/>
   <rect height="1" width="100" y="99" x="0"/>
  </g>
  <g id="12">
   <rect height="15" width="60" y="0" x="20" fill="rgb(242.250000,96.900000,96.900000)"/>
   <rect height="15" width="60" y="85" x="20" fill="rgb(96.552273,96.552273,216.750000)"/>
   <rect height="60" width="15" y="20" x="0" fill="rgb(96.552273,96.552273,216.750000)"/>
   <rect height="60" width="15" y="20" x="85" fill="rgb(242.250000,96.900000,96.900000)"/>
   <rect height="100" width="1" y="0" x="0"/>
   <rect height="1" width="100" y="0" x="0"/>
   <rect height="100" width="1" y="0" x="99"/>
   <rect height="1" width="100" y="99" x="0"/>
  </g>
  <g id="13">
   <rect height="15" width="60" y="0" x="20" fill="rgb(242.250000,96.900000,96.900000)"/>
   <rect height="15" width="60" y="85" x="20" fill="rgb(96.552273,96.552273,216.750000)"/>
   <rect height="60" width="15" y="20" x="0" fill="rgb(96.552273,96.552273,216.750000)"/>
   <rect height="60" width="15" y="20" x="85" fill="rgb(96.552273,96.552273,216.750000)"/>
   <rect height="100" width="1" y="0" x="0"/>
   <rect height="1" width="100" y="0" x="0"/>
   <rect height="100" width="1" y="0" x="99"/>
   <rect height="1" width="100" y="99" x="0"/>
  </g>
  <g id="14">
   <rect height="15" width="60" y="0" x="20" fill="rgb(242.250000,96.900000,96.900000)"/>
   <rect height="15" width="60" y="85" x="20" fill="rgb(96.552273,96.552273,216.750000)"/>
   <rect height="60" width="15" y="20" x="0" fill="rgb(96.552273,96.552273,216.750000)"/>
   <rect height="60" width="15" y="20" x="85" fill="rgb(191.250000,191.250000,93.886364)"/>
   <rect height="100" width="1" y="0" x="0"/>
   <rect height="1" width="100" y="0" x="0"/>
   <rect height="100" width="1" y="0" x="99"/>
   <rect height="1" width="100" y="99" x="0"/>
  </g>
  <g id="15">
   <rect height="15" width="60" y="0" x="20" fill="rgb(242.250000,96.900000,96.900000)"/>
   <rect height="15" width="60" y="85" x="20" fill="rgb(191.250000,191.250000,93.886364)"/>
   <rect height="60" width="15" y="20" x="0" fill="rgb(96.552273,96.552273,216.750000)"/>
   <rect height="60" width="15" y="20" x="85" fill="rgb(242.250000,96.900000,96.900000)"/>
   <rect height="100" width="1" y="0" x="0"/>
   <rect height="1" width="100" y="0" x="0"/>
   <rect height="100" width="1" y="0" x="99"/>
   <rect height="1" width="100" y="99" x="0"/>
  </g>
  <g id="16">
   <rect height="15" width="60" y="0" x="20" fill="rgb(242.250000,96.900000,96.900000)"/>
   <rect height="15" width="60" y="85" x="20" fill="rgb(191.250000,191.250000,93.886364)"/>
   <rect height="60" width="15" y="20" x="0" fill="rgb(96.552273,96.552273,216.750000)"/>
   <rect height="60" width="15" y="20" x="85" fill="rgb(96.552273,96.552273,216.750000)"/>
   <rect height="100" width="1" y="0" x="0"/>
   <rect height="1" width="100" y="0" x="0"/>
   <rect height="100" width="1" y="0" x="99"/>
   <rect height="1" width="100" y="99" x="0"/>
  </g>
  <g id="17">
   <rect height="15" width="60" y="0" x="20" fill="rgb(242.250000,96.900000,96.900000)"/>
   <rect height="15" width="60" y="85" x="20" fill="rgb(191.250000,191.250000,93.886364)"/>
   <rect height="60" width="15" y="20" x="0" fill="rgb(96.552273,96.552273,216.750000)"/>
   <rect height="60" width="15" y="20" x="85" fill="rgb(191.250000,191.250000,93.886364)"/>
   <rect height="100" width="1" y="0" x="0"/>
   <rect height="1" width="100" y="0" x="0"/>
   <rect height="100" width="1" y="0" x="99"/>
   <rect height="1" width="100" y="99" x="0"/>
  </g>
  <g id="18">
   <rect height="15" width="60" y="0" x="20" fill="rgb(242.250000,96.900000,96.900000)"/>
   <rect height="15" width="60" y="85" x="20" fill="rgb(242.250000,96.900000,96.900000)"/>
   <rect height="60" width="15" y="20" x="0" fill="rgb(191.250000,191.250000,93.886364)"/>
   <rect height="60" width="15" y="20" x="85" fill="rgb(242.250000,96.900000,96.900000)"/>
   <rect height="100" width="1" y="0" x="0"/>
   <rect height="1" width="100" y="0" x="0"/>
   <rect height="100" width="1" y="0" x="99"/>
   <rect height="1" width="100" y="99" x="0"/>
  </g>
  <g id="19">
   <rect height="15" width="60" y="0" x="20" fill="rgb(242.250000,96.900000,96.900000)"/>
   <rect height="15" width="60" y="85" x="20" fill="rgb(242.250000,96.900000,96.900000)"/>
   <rect height="60" width="15" y="20" x="0" fill="rgb(191.250000,191.250000,93.886364)"/>
   <rect height="60" width="15" y="20" x="85" fill="rgb(96.552273,96.552273,216.750000)"/>
   <rect height="100" width="1" y="0" x="0"/>
   <rect height="1" width="100" y="0" x="0"/>
   <rect height="100" width="1" y="0" x="99"/>
   <rect height="1" width="100" y="99" x="0"/>
  </g>
  <g id="20">
   <rect height="15" width="60" y="0" x="20" fill="rgb(242.250000,96.900000,96.900000)"/>
   <rect height="15" width="60" y="85" x="20" fill="rgb(242.250000,96.900000,96.900000)"/>
   <rect height="60" width="15" y="20" x="0" fill="rgb(191.250000,191.250000,93.886364)"/>
   <rect height="60" width="15" y="20" x="85" fill="rgb(191.250000,191.250000,93.886364)"/>
   <rect height="100" width="1" y="0" x="0"/>
   <rect height="1" width="100" y="0" x="0"/>
   <rect height="100" width="1" y="0" x="99"/>
   <rect height="1" width="100" y="99" x="0"/>
  </g>
  <g id="21">
   <rect height="15" width="60" y="0" x="20" fill="rgb(242.250000,96.900000,96.900000)"/>
   <rect height="15" width="60" y="85" x="20" fill="rgb(96.552273,96.552273,216.750000)"/>
   <rect height="60" width="15" y="20" x="0" fill="rgb(191.250000,191.250000,93.886364)"/>
   <rect height="60" width="15" y="20" x="85" fill="rgb(242.250000,96.900000,96.900000)"/>
   <rect height="100" width="1" y="0" x="0"/>
   <rect height="1" width="100" y="0" x="0"/>
   <rect height="100" width="1" y="0" x="99"/>
   <rect height="1" width="100" y="99" x="0"/>
  </g>
  <g id="22">
   <rect height="15" width="60" y="0" x="20" fill="rgb(242.250000,96.900000,96.900000)"/>
   <rect height="15" width="60" y="85" x="20" fill="rgb(96.552273,96.552273,216.750000)"/>
   <rect height="60" width="15" y="20" x="0" fill="rgb(191.250000,191.250000,93.886364)"/>
   <rect height="60" width="15" y="20" x="85" fill="rgb(96.552273,96.552273,216.750000)"/>
   <rect height="100" width="1" y="0" x="0"/>
   <rect height="1" width="100" y="0" x="0"/>
   <rect height="100" width="1" y="0" x="99"/>
   <rect height="1" width="100" y="99" x="0"/>
  </g>
  <g id="23">
   <rect height="15" width="60" y="0" x="20" fill="rgb(242.250000,96.900000,96.900000)"/>
   <rect height="15" width="60" y="85" x="20" fill="rgb(96.552273,96.552273,216.750000)"/>
   <rect height="60" width="15" y="20" x="0" fill="rgb(191.250000,191.250000,93.886364)"/>
   <rect height="60" width="15" y="20" x="85" fill="rgb(191.250000,191.250000,93.886364)"/>
   <rect height="100" width="1" y="0" x="0"/>
   <rect height="1" width="100" y="0" x="0"/>
   <rect height="100" width="1" y="0" x="99"/>
   <rect height="1" width="100" y="99" x="0"/>
  </g>
  <g id="24">
   <rect height="15" width="60" y="0" x="20" fill="rgb(242.250000,96.900000,96.900000)"/>
   <rect height="15" width="60" y="85" x="20" fill="rgb(191.250000,191.250000,93.886364)"/>
   <rect height="60" width="15" y="20" x="0" fill="rgb(191.250000,191.250000,93.886364)"/>
   <rect height="60" width="15" y="20" x="85" fill="rgb(242.250000,96.900000,96.900000)"/>
   <rect height="100" width="1" y="0" x="0"/>
   <rect height="1" width="100" y="0" x="0"/>
   <rect height="100" width="1" y="0" x="99"/>
   <rect height="1" width="100" y="99" x="0"/>
  </g>
  <g id="25">
   <rect height="15" width="60" y="0" x="20" fill="rgb(242.250000,96.900000,96.900000)"/>
   <rect height="15" width="60" y="85" x="20" fill="rgb(191.250000,191.250000,93.886364)"/>
   <rect height="60" width="15" y="20" x="0" fill="rgb(191.250000,191.250000,93.886364)"/>
   <rect height="60" width="15" y="20" x="85" fill="rgb(96.552273,96.552273,216.750000)"/>
   <rect height="100" width="1" y="0" x="0"/>
   <rect height="1" width="100" y="0" x="0"/>
   <rect height="100" width="1" y="0" x="99"/>
   <rect height="1" width="100" y="99" x="0"/>
  </g>
  <g id="26">
   <rect height="15" width="60" y="0" x="20" fill="rgb(242.250000,96.900000,96.900000)"/>
   <rect height="15" width="60" y="85" x="20" fill="rgb(191.250000,191.250000,93.886364)"/>
   <rect height="60" width="15" y="20" x="0" fill="rgb(191.250000,191.250000,93.886364)"/>
   <rect height="60" width="15" y="20" x="85" fill="rgb(191.250000,191.250000,93.886364)"/>
   <rect height="100" width="1" y="0" x="0"/>
   <rect height="1" width="100" y="0" x="0"/>
   <rect height="100" width="1" y="0" x="99"/>
   <rect height="1" width="100" y="99" x="0"/>
  </g>
  <g id="27">
   <rect height="15" width="60" y="0" x="20" fill="rgb(96.552273,96.552273,216.750000)"/>
   <rect height="15" width="60" y="85" x="20" fill="rgb(242.250000,96.900000,96.900000)"/>
   <rect height="60" width="15" y="20" x="0" fill="rgb(242.250000,96.900000,96.900000)"/>
   <rect height="60" width="15" y="20" x="85" fill="rgb(242.250000,96.900000,96.900000)"/>
   <rect height="100" width="1" y="0" x="0"/>
   <rect height="1" width="100" y="0" x="0"/>
   <rect height="100" width="1" y="0" x="99"/>
   <rect height="1" width="100" y="99" x="0"/>
  </g>
  <g id="28">
   <rect height="15" width="60" y="0" x="20" fill="rgb(96.552273,96.552273,216.750000)"/>
   <rect height="15" width="60" y="85" x="20" fill="rgb(242.250000,96.900000,96.900000)"/>
   <rect height="60" width="15" y="20" x="0" fill="rgb(242.250000,96.900000,96.900000)"/>
   <rect height="60" width="15" y="20" x="85" fill="rgb(96.552273,96.552273,216.750000)"/>
   <rect height="100" width="1" y="0" x="0"/>
   <rect height="1" width="100" y="0" x="0"/>
   <rect height="100" width="1" y="0" x="99"/>
   <rect height="1" width="100" y="99" x="0"/>
  </g>
  <g id="29">
   <rect height="15" width="60" y="0" x="20" fill="rgb(96.552273,96.552273,216.750000)"/>
   <rect height="15" width="60" y="85" x="20" fill="rgb(242.250000,96.900000,96.900000)"/>
   <rect height="60" width="15" y="20" x="0" fill="rgb(242.250000,96.900000,96.900000)"/>
   <rect height="60" width="15" y="20" x="85" fill="rgb(191.250000,191.250000,93.886364)"/>
   <rect height="100" width="1" y="0" x="0"/>
   <rect height="1" width="100" y="0" x="0"/>
   <rect height="100" width="1" y="0" x="99"/>
   <rect height="1" width="100" y="99" x="0"/>
  </g>
  <g id="30">
   <rect height="15" width="60" y="0" x="20" fill="rgb(96.552273,96.552273,216.750000)"/>
   <rect height="15" width="60" y="85" x="20" fill="rgb(96.552273,96.552273,216.750000)"/>
   <rect height="60" width="15" y="20" x="0" fill="rgb(242.250000,96.900000,96.900000)"/>
   <rect height="60" width="15" y="20" x="85" fill="rgb(242.250000,96.900000,96.900000)"/>
   <rect height="100" width="1" y="0" x="0"/>
   <rect height="1" width="100" y="0" x="0"/>
   <rect height="100" width="1" y="0" x="99"/>
   <rect height="1" width="100" y="99" x="0"/>
  </g>
  <g id="31">
   <rect height="15" width="60" y="0" x="20" fill="rgb(96.552273,96.552273,216.750000)"/>
   <rect height="15" width="60" y="85" x="20" fill="rgb(96.552273,96.552273,216.750000)"/>
   <rect height="60" width="15" y="20" x="0" fill="rgb(242.250000,96.900000,96.900000)"/>
   <rect height="60" width="15" y="20" x="85" fill="rgb(96.552273,96.552273,216.750000)"/>
   <rect height="100" width="1" y="0" x="0"/>
   <rect height="1" width="100" y="0" x="0"/>
   <rect height="100" width="1" y="0" x="99"/>
   <rect height="1" width="100" y="99" x="0"/>
  </g>
  <g id="32">
   <rect height="15" width="60" y="0" x="20" fill="rgb(96.552273,96.552273,216.750000)"/>
   <rect height="15" width="60" y="85" x="20" fill="rgb(96.552273,96.552273,216.750000)"/>
   <rect height="60" width="15" y="20" x="0" fill="rgb(242.250000,96.900000,96.900000)"/>
   <rect height="60" width="15" y="20" x="85" fill="rgb(191.250000,191.250000,93.886364)"/>
   <rect height="100" width="1" y="0" x="0"/>
   <rect height="1" width="100" y="0" x="0"/>
   <rect height="100" width="1" y="0" x="99"/>
   <rect height="1" width="100" y="99" x="0"/>
  </g>
  <g id="33">
   <rect height="15" width="60" y="0" x="20" fill="rgb(96.552273,96.552273,216.750000)"/>
   <rect height="15" width="60" y="85" x="20" fill="rgb(191.250000,191.250000,93.886364)"/>
   <rect height="60" width="15" y="20" x="0" fill="rgb(242.250000,96.900000,96.900000)"/>
   <rect height="60" width="15" y="20" x="85" fill="rgb(242.250000,96.900000,96.900000)"/>
   <rect height="100" width="1" y="0" x="0"/>
   <rect height="1" width="100" y="0" x="0"/>
   <rect height="100" width="1" y="0" x="99"/>
   <rect height="1" width="100" y="99" x="0"/>
  </g>
  <g id="34">
   <rect height="15" width="60" y="0" x="20" fill="rgb(96.552273,96.552273,216.750000)"/>
   <rect height="15" width="60" y="85" x="20" fill="rgb(191.250000,191.250000,93.886364)"/>
   <rect height="60" width="15" y="20" x="0" fill="rgb(242.250000,96.900000,96.900000)"/>
   <rect height="60" width="15" y="20" x="85" fill="rgb(96.552273,96.552273,216.750000)"/>
   <rect height="100" width="1" y="0" x="0"/>
   <rect height="1" width="100" y="0" x="0"/>
   <rect height="100" width="1" y="0" x="99"/>
   <rect height="1" width="100" y="99" x="0"/>
  </g>
  <g id="35">
   <rect height="15" width="60" y="0" x="20" fill="rgb(96.552273,96.552273,216.750000)"/>
   <rect height="15" width="60" y="85" x="20" fill="rgb(191.250000,191.250000,93.886364)"/>
   <rect height="60" width="15" y="20" x="0" fill="rgb(242.250000,96.900000,96.900000)"/>
   <rect height="60" width="15" y="20" x="85" fill="rgb(191.250000,191.250000,93.886364)"/>
   <rect height="100" width="1" y="0" x="0"/>
   <rect height="1" width="100" y="0" x="0"/>
   <rect height="100" width="1" y="0" x="99"/>
   <rect height="1" width="100" y="99" x="0"/>
  </g>
  <g id="36">
   <rect height="15" width="60" y="0" x="20" fill="rgb(96.552273,96.552273,216.750000)"/>
   <rect height="15" width="60" y="85" x="20" fill="rgb(242.250000,96.900000,96.900000)"/>
   <rect height="60" width="15" y="20" x="0" fill="rgb(96.552273,96.552273,216.750000)"/>
   <rect height="60" width="15" y="20" x="85" fill="rgb(242.250000,96.900000,96.900000)"/>
   <rect height="100" width="1" y="0" x="0"/>
   <rect height="1" width="100" y="0" x="0"/>
   <rect height="100" width="1" y="0" x="99"/>
   <rect height="1" width="100" y="99" x="0"/>
  </g>
  <g id="37">
   <rect height="15" width="60" y="0" x="20" fill="rgb(96.552273,96.552273,216.750000)"/>
   <rect height="15" width="60" y="85" x="20" fill="rgb(242.250000,96.900000,96.900000)"/>
   <rect height="60" width="15" y="20" x="0" fill="rgb(96.552273,96.552273,216.750000)"/>
   <rect height="60" width="15" y="20" x="85" fill="rgb(96.552273,96.552273,216.750000)"/>
   <rect height="100" width="1" y="0" x="0"/>
   <rect height="1" width="100" y="0" x="0"/>
   <rect height="100" width="1" y="0" x="99"/>
   <rect height="1" width="100" y="99" x="0"/>
  </g>
  <g id="38">
   <rect height="15" width="60" y="0" x="20" fill="rgb(96.552273,96.552273,216.750000)"/>
   <rect height="15" width="60" y="85" x="20" fill="rgb(242.250000,96.900000,96.900000)"/>
   <rect height="60" width="15" y="20" x="0" fill="rgb(96.552273,96.552273,216.750000)"/>
   <rect height="60" width="15" y="20" x="85" fill="rgb(191.250000,191.250000,93.886364)"/>
   <rect height="100" width="1" y="0" x="0"/>
   <rect height="1" width="100" y="0" x="0"/>
   <rect height="100" width="1" y="0" x="99"/>
   <rect height="1" width="100" y="99" x="0"/>
  </g>
  <g id="39">
   <rect height="15" width="60" y="0" x="20" fill="rgb(96.552273,96.552273,216.750000)"/>
   <rect height="15" width="60" y="85" x="20" fill="rgb(96.552273,96.552273,216.750000)"/>
   <rect height="60" width="15" y="20" x="0" fill="rgb(96.552273,96.552273,216.750000)"/>
   <rect height="60" width="15" y="20" x="85" fill="rgb(242.250000,96.900000,96.900000)"/>
   <rect height="100" width="1" y="0" x="0"/>
   <rect height="1" width="100" y="0" x="0"/>
   <rect height="100" width="1" y="0" x="99"/>
   <rect height="1" width="100" y="99" x="0"/>
  </g>
  <g id="40">
   <rect height="15" width="60" y="0" x="20" fill="rgb(96.552273,96.552273,216.750000)"/>
   <rect height="15" width="60" y="85" x="20" fill="rgb(96.552273,96.552273,216.750000)"/>
   <rect height="60" width="15" y="20" x="0" fill="rgb(96.552273,96.552273,216.750000)"/>
   <rect height="60" width="15" y="20" x="85" fill="rgb(96.552273,96.552273,216.750000)"/>
   <rect height="100" width="1" y="0" x="0"/>
   <rect height="1" width="100" y="0" x="0"/>
   <rect height="100" width="1" y="0" x="99"/>
   <rect height="1" width="100" y="99" x="0"/>
  </g>
  <g id="41">
   <rect height="15" width="60" y="0" x="20" fill="rgb(96.552273,96.552273,216.750000)"/>
   <rect height="15" width="60" y="85" x="20" fill="rgb(96.552273,96.552273,216.750000)"/>
   <rect height="60" width="15" y="20" x="0" fill="rgb(96.552273,96.552273,216.750000)"/>
   <rect height="60" width="15" y="20" x="85" fill="rgb(191.250000,191.250000,93.886364)"/>
   <rect height="100" width="1" y="0" x="0"/>
   <rect height="1" width="100" y="0" x="0"/>
   <rect height="100" width="1" y="0" x="99"/>
   <rect height="1" width="100" y="99" x="0"/>
  </g>
  <g id="42">
   <rect height="15" width="60" y="0" x="20" fill="rgb(96.552273,96.552273,216.750000)"/>
   <rect height="15" width="60" y="85" x="20" fill="rgb(191.250000,191.250000,93.886364)"/>
   <rect height="60" width="15" y="20" x="0" fill="rgb(96.552273,96.552273,216.750000)"/>
   <rect height="60" width="15" y="20" x="85" fill="rgb(242.250000,96.900000,96.900000)"/>
   <rect height="100" width="1" y="0" x="0"/>
   <rect height="1" width="100" y="0" x="0"/>
   <rect height="100" width="1" y="0" x="99"/>
   <rect height="1" width="100" y="99" x="0"/>
  </g>
  <g id="43">
   <rect height="15" width="60" y="0" x="20" fill="rgb(96.552273,96.552273,216.750000)"/>
   <rect height="15" width="60" y="85" x="20" fill="rgb(191.250000,191.250000,93.886364)"/>
   <rect height="60" width="15" y="20" x="0" fill="rgb(96.552273,96.552273,216.750000)"/>
   <rect height="60" width="15" y="20" x="85" fill="rgb(96.552273,96.552273,216.750000)"/>
   <rect height="100" width="1" y="0" x="0"/>
   <rect height="1" width="100" y="0" x="0"/>
   <rect height="100" width="1" y="0" x="99"/>
   <rect height="1" width="100" y="99" x="0"/>
  </g>
  <g id="44">
   <rect height="15" width="60" y="0" x="20" fill="rgb(96.552273,96.552273,216.750000)"/>
   <rect height="15" width="60" y="85" x="20" fill="rgb(191.250000,191.250000,93.886364)"/>
   <rect height="60" width="15" y="20" x="0" fill="rgb(96.552273,96.552273,216.750000)"/>
   <rect height="60" width="15" y="20" x="85" fill="rgb(191.250000,191.250000,93.886364)"/>
   <rect height="100" width="1" y="0" x="0"/>
   <rect height="1" width="100" y="0" x="0"/>
   <rect height="100" width="1" y="0" x="99"/>
   <rect height="1" width="100" y="99" x="0"/>
  </g>
  <g id="45">
   <rect height="15" width="60" y="0" x="20" fill="rgb(96.552273,96.552273,216.750000)"/>
   <rect height="15" width="60" y="85" x="20" fill="rgb(242.250000,96.900000,96.900000)"/>
   <rect height="60" width="15" y="20" x="0" fill="rgb(191.250000,191.250000,93.886364)"/>
   <rect height="60" width="15" y="20" x="85" fill="rgb(242.250000,96.900000,96.900000)"/>
   <rect height="100" width="1" y="0" x="0"/>
   <rect height="1" width="100" y="0" x="0"/>
   <rect height="100" width="1" y="0" x="99"/>
   <rect height="1" width="100" y="99" x="0"/>
  </g>
  <g id="46">
   <rect height="15" width="60" y="0" x="20" fill="rgb(96.552273,96.552273,216.750000)"/>
   <rect height="15" width="60" y="85" x="20" fill="rgb(242.250000,96.900000,96.900000)"/>
   <rect height="60" width="15" y="20" x="0" fill="rgb(191.250000,191.250000,93.886364)"/>
   <rect height="60" width="15" y="20" x="85" fill="rgb(96.552273,96.552273,216.750000)"/>
   <rect height="100" width="1" y="0" x="0"/>
   <rect height="1" width="100" y="0" x="0"/>
   <rect height="100" width="1" y="0" x="99"/>
   <rect height="1" width="100" y="99" x="0"/>
  </g>
  <g id="47">
   <rect height="15" width="60" y="0" x="20" fill="rgb(96.552273,96.552273,216.750000)"/>
   <rect height="15" width="60" y="85" x="20" fill="rgb(242.250000,96.900000,96.900000)"/>
   <rect height="60" width="15" y="20" x="0" fill="rgb(191.250000,191.250000,93.886364)"/>
   <rect height="60" width="15" y="20" x="85" fill="rgb(191.250000,191.250000,93.886364)"/>
   <rect height="100" width="1" y="0" x="0"/>
   <rect height="1" width="100" y="0" x="0"/>
   <rect height="100" width="1" y="0" x="99"/>
   <rect height="1" width="100" y="99" x="0"/>
  </g>
  <g id="48">
   <rect height="15" width="60" y="0" x="20" fill="rgb(96.552273,96.552273,216.750000)"/>
   <rect height="15" width="60" y="85" x="20" fill="rgb(96.552273,96.552273,216.750000)"/>
   <rect height="60" width="15" y="20" x="0" fill="rgb(191.250000,191.250000,93.886364)"/>
   <rect height="60" width="15" y="20" x="85" fill="rgb(242.250000,96.900000,96.900000)"/>
   <rect height="100" width="1" y="0" x="0"/>
   <rect height="1" width="100" y="0" x="0"/>
   <rect height="100" width="1" y="0" x="99"/>
   <rect height="1" width="100" y="99" x="0"/>
  </g>
  <g id="49">
   <rect height="15" width="60" y="0" x="20" fill="rgb(96.552273,96.552273,216.750000)"/>
   <rect height="15" width="60" y="85" x="20" fill="rgb(96.552273,96.552273,216.750000)"/>
   <rect height="60" width="15" y="20" x="0" fill="rgb(191.250000,191.250000,93.886364)"/>
   <rect height="60" width="15" y="20" x="85" fill="rgb(96.552273,96.552273,216.750000)"/>
   <rect height="100" width="1" y="0" x="0"/>
   <rect height="1" width="100" y="0" x="0"/>
   <rect height="100" width="1" y="0" x="99"/>
   <rect height="1" width="100" y="99" x="0"/>
  </g>
  <g id="50">
   <rect height="15" width="60" y="0" x="20" fill="rgb(96.552273,96.552273,216.750000)"/>
   <rect height="15" width="60" y="85" x="20" fill="rgb(96.552273,96.552273,216.750000)"/>
   <rect height="60" width="15" y="20" x="0" fill="rgb(191.250000,191.250000,93.886364)"/>
   <rect height="60" width="15" y="20" x="85" fill="rgb(191.250000,191.250000,93.886364)"/>
   <rect height="100" width="1" y="0" x="0"/>
   <rect height="1" width="100" y="0" x="0"/>
   <rect height="100" width="1" y="0" x="99"/>
   <rect height="1" width="100" y="99" x="0"/>
  </g>
  <g id="51">
   <rect height="15" width="60" y="0" x="20" fill="rgb(96.552273,96.552273,216.750000)"/>
   <rect height="15" width="60" y="85" x="20" fill="rgb(191.250000,191.250000,93.886364)"/>
   <rect height="60" width="15" y="20" x="0" fill="rgb(191.250000,191.250000,93.886364)"/>
   <rect height="60" width="15" y="20" x="85" fill="rgb(242.250000,96.900000,96.900000)"/>
   <rect height="100" width="1" y="0" x="0"/>
   <rect height="1" width="100" y="0" x="0"/>
   <rect height="100" width="1" y="0" x="99"/>
   <rect height="1" width="100" y="99" x="0"/>
  </g>
  <g id="52">
   <rect height="15" width="60" y="0" x="20" fill="rgb(96.552273,96.552273,216.750000)"/>
   <rect height="15" width="60" y="85" x="20" fill="rgb(191.250000,191.250000,93.886364)"/>
   <rect height="60" width="15" y="20" x="0" fill="rgb(191.250000,191.250000,93.886364)"/>
   <rect height="60" width="15" y="20" x="85" fill="rgb(96.552273,96.552273,216.750000)"/>
   <rect height="100" width="1" y="0" x="0"/>
   <rect height="1" width="100" y="0" x="0"/>
   <rect height="100" width="1" y="0" x="99"/>
   <rect height="1" width="100" y="99" x="0"/>
  </g>
  <g id="53">
   <rect height="15" width="60" y="0" x="20" fill="rgb(96.552273,96.552273,216.750000)"/>
   <rect height="15" width="60" y="85" x="20" fill="rgb(191.250000,191.250000,93.886364)"/>
   <rect height="60" width="15" y="20" x="0" fill="rgb(191.250000,191.250000,93.886364)"/>
   <rect height="60" width="15" y="20" x="85" fill="rgb(191.250000,191.250000,93.886364)"/>
   <rect height="100" width="1" y="0" x="0"/>
   <rect height="1" width="100" y="0" x="0"/>
   <rect height="100" width="1" y="0" x="99"/>
   <rect height="1" width="100" y="99" x="0"/>
  </g>
  <g id="54">
   <rect height="15" width="60" y="0" x="20" fill="rgb(191.250000,191.250000,93.886364)"/>
   <rect height="15" width="60" y="85" x="20" fill="rgb(242.250000,96.900000,96.900000)"/>
   <rect height="60" width="15" y="20" x="0" fill="rgb(242.250000,96.900000,96.900000)"/>
   <rect height="60" width="15" y="20" x="85" fill="rgb(242.250000,96.900000,96.900000)"/>
   <rect height="100" width="1" y="0" x="0"/>
   <rect height="1" width="100" y="0" x="0"/>
   <rect height="100" width="1" y="0" x="99"/>
   <rect height="1" width="100" y="99" x="0"/>
  </g>
  <g id="55">
   <rect height="15" width="60" y="0" x="20" fill="rgb(191.250000,191.250000,93.886364)"/>
   <rect height="15" width="60" y="85" x="20" fill="rgb(242.250000,96.900000,96.900000)"/>
   <rect height="60" width="15" y="20" x="0" fill="rgb(242.250000,96.900000,96.900000)"/>
   <rect height="60" width="15" y="20" x="85" fill="rgb(96.552273,96.552273,216.750000)"/>
   <rect height="100" width="1" y="0" x="0"/>
   <rect height="1" width="100" y="0" x="0"/>
   <rect height="100" width="1" y="0" x="99"/>
   <rect height="1" width="100" y="99" x="0"/>
  </g>
  <g id="56">
   <rect height="15" width="60" y="0" x="20" fill="rgb(191.250000,191.250000,93.886364)"/>
   <rect height="15" width="60" y="85" x="20" fill="rgb(242.250000,96.900000,96.900000)"/>
   <rect height="60" width="15" y="20" x="0" fill="rgb(242.250000,96.900000,96.900000)"/>
   <rect height="60" width="15" y="20" x="85" fill="rgb(191.250000,191.250000,93.886364)"/>
   <rect height="100" width="1" y="0" x="0"/>
   <rect height="1" width="100" y="0" x="0"/>
   <rect height="100" width="1" y="0" x="99"/>
   <rect height="1" width="100" y="99" x="0"/>
  </g>
  <g id="57">
   <rect height="15" width="60" y="0" x="20" fill="rgb(191.250000,191.250000,93.886364)"/>
   <rect height="15" width="60" y="85" x="20" fill="rgb(96.552273,96.552273,216.750000)"/>
   <rect height="60" width="15" y="20" x="0" fill="rgb(242.250000,96.900000,96.900000)"/>
   <rect height="60" width="15" y="20" x="85" fill="rgb(242.250000,96.900000,96.900000)"/>
   <rect height="100" width="1" y="0" x="0"/>
   <rect height="1" width="100" y="0" x="0"/>
   <rect height="100" width="1" y="0" x="99"/>
   <rect height="1" width="100" y="99" x="0"/>
  </g>
  <g id="58">
   <rect height="15" width="60" y="0" x="20" fill="rgb(191.250000,191.250000,93.886364)"/>
   <rect height="15" width="60" y="85" x="20" fill="rgb(96.552273,96.552273,216.750000)"/>
   <rect height="60" width="15" y="20" x="0" fill="rgb(242.250000,96.900000,96.900000)"/>
   <rect height="60" width="15" y="20" x="85" fill="rgb(96.552273,96.552273,216.750000)"/>
   <rect height="100" width="1" y="0" x="0"/>
   <rect height="1" width="100" y="0" x="0"/>
   <rect height="100" width="1" y="0" x="99"/>
   <rect height="1" width="100" y="99" x="0"/>
  </g>
  <g id="59">
   <rect height="15" width="60" y="0" x="20" fill="rgb(191.250000,191.250000,93.886364)"/>
   <rect height="15" width="60" y="85" x="20" fill="rgb(96.552273,96.552273,216.750000)"/>
   <rect height="60" width="15" y="20" x="0" fill="rgb(242.250000,96.900000,96.900000)"/>
   <rect height="60" width="15" y="20" x="85" fill="rgb(191.250000,191.250000,93.886364)"/>
   <rect height="100" width="1" y="0" x="0"/>
   <rect height="1" width="100" y="0" x="0"/>
   <rect height="100" width="1" y="0" x="99"/>
   <rect height="1" width="100" y="99" x="0"/>
  </g>
  <g id="60">
   <rect height="15" width="60" y="0" x="20" fill="rgb(191.250000,191.250000,93.886364)"/>
   <rect height="15" width="60" y="85" x="20" fill="rgb(191.250000,191.250000,93.886364)"/>
   <rect height="60" width="15" y="20" x="0" fill="rgb(242.250000,96.900000,96.900000)"/>
   <rect height="60" width="15" y="20" x="85" fill="rgb(242.250000,96.900000,96.900000)"/>
   <rect height="100" width="1" y="0" x="0"/>
   <rect height="1" width="100" y="0" x="0"/>
   <rect height="100" width="1" y="0" x="99"/>
   <rect height="1" width="100" y="99" x="0"/>
  </g>
  <g id="61">
   <rect height="15" width="60" y="0" x="20" fill="rgb(191.250000,191.250000,93.886364)"/>
   <rect height="15" width="60" y="85" x="20" fill="rgb(191.250000,191.250000,93.886364)"/>
   <rect height="60" width="15" y="20" x="0" fill="rgb(242.250000,96.900000,96.900000)"/>
   <rect height="60" width="15" y="20" x="85" fill="rgb(96.552273,96.552273,216.750000)"/>
   <rect height="100" width="1" y="0" x="0"/>
   <rect height="1" width="100" y="0" x="0"/>
   <rect height="100" width="1" y="0" x="99"/>
   <rect height="1" width="100" y="99" x="0"/>
  </g>
  <g id="62">
   <rect height="15" width="60" y="0" x="20" fill="rgb(191.250000,191.250000,93.886364)"/>
   <rect height="15" width="60" y="85" x="20" fill="rgb(191.250000,191.250000,93.886364)"/>
   <rect height="60" width="15" y="20" x="0" fill="rgb(242.250000,96.900000,96.900000)"/>
   <rect height="60" width="15" y="20" x="85" fill="rgb(191.250000,191.250000,93.886364)"/>
   <rect height="100" width="1" y="0" x="0"/>
   <rect height="1" width="100" y="0" x="0"/>
   <rect height="100" width="1" y="0" x="99"/>
   <rect height="1" width="100" y="99" x="0"/>
  </g>
  <g id="63">
   <rect height="15" width="60" y="0" x="20" fill="rgb(191.250000,191.250000,93.886364)"/>
   <rect height="15" width="60" y="85" x="20" fill="rgb(242.250000,96.900000,96.900000)"/>
   <rect height="60" width="15" y="20" x="0" fill="rgb(96.552273,96.552273,216.750000)"/>
   <rect height="60" width="15" y="20" x="85" fill="rgb(242.250000,96.900000,96.900000)"/>
   <rect height="100" width="1" y="0" x="0"/>
   <rect height="1" width="100" y="0" x="0"/>
   <rect height="100" width="1" y="0" x="99"/>
   <rect height="1" width="100" y="99" x="0"/>
  </g>
  <g id="64">
   <rect height="15" width="60" y="0" x="20" fill="rgb(191.250000,191.250000,93.886364)"/>
   <rect height="15" width="60" y="85" x="20" fill="rgb(242.250000,96.900000,96.900000)"/>
   <rect height="60" width="15" y="20" x="0" fill="rgb(96.552273,96.552273,216.750000)"/>
   <rect height="60" width="15" y="20" x="85" fill="rgb(96.552273,96.552273,216.750000)"/>
   <rect height="100" width="1" y="0" x="0"/>
   <rect height="1" width="100" y="0" x="0"/>
   <rect height="100" width="1" y="0" x="99"/>
   <rect height="1" width="100" y="99" x="0"/>
  </g>
  <g id="65">
   <rect height="15" width="60" y="0" x="20" fill="rgb(191.250000,191.250000,93.886364)"/>
   <rect height="15" width="60" y="85" x="20" fill="rgb(242.250000,96.900000,96.900000)"/>
   <rect height="60" width="15" y="20" x="0" fill="rgb(96.552273,96.552273,216.750000)"/>
   <rect height="60" width="15" y="20" x="85" fill="rgb(191.250000,191.250000,93.886364)"/>
   <rect height="100" width="1" y="0" x="0"/>
   <rect height="1" width="100" y="0" x="0"/>
   <rect height="100" width="1" y="0" x="99"/>
   <rect height="1" width="100" y="99" x="0"/>
  </g>
  <g id="66">
   <rect height="15" width="60" y="0" x="20" fill="rgb(191.250000,191.250000,93.886364)"/>
   <rect height="15" width="60" y="85" x="20" fill="rgb(96.552273,96.552273,216.750000)"/>
   <rect height="60" width="15" y="20" x="0" fill="rgb(96.552273,96.552273,216.750000)"/>
   <rect height="60" width="15" y="20" x="85" fill="rgb(242.250000,96.900000,96.900000)"/>
   <rect height="100" width="1" y="0" x="0"/>
   <rect height="1" width="100" y="0" x="0"/>
   <rect height="100" width="1" y="0" x="99"/>
   <rect height="1" width="100" y="99" x="0"/>
  </g>
  <g id="67">
   <rect height="15" width="60" y="0" x="20" fill="rgb(191.250000,191.250000,93.886364)"/>
   <rect height="15" width="60" y="85" x="20" fill="rgb(96.552273,96.552273,216.750000)"/>
   <rect height="60" width="15" y="20" x="0" fill="rgb(96.552273,96.552273,216.750000)"/>
   <rect height="60" width="15" y="20" x="85" fill="rgb(96.552273,96.552273,216.750000)"/>
   <rect height="100" width="1" y="0" x="0"/>
   <rect height="1" width="100" y="0" x="0"/>
   <rect height="100" width="1" y="0" x="99"/>
   <rect height="1" width="100" y="99" x="0"/>
  </g>
  <g id="68">
   <rect height="15" width="60" y="0" x="20" fill="rgb(191.250000,191.250000,93.886364)"/>
   <rect height="15" width="60" y="85" x="20" fill="rgb(96.552273,96.552273,216.750000)"/>
   <rect height="60" width="15" y="20" x="0" fill="rgb(96.552273,96.552273,216.750000)"/>
   <rect height="60" width="15" y="20" x="85" fill="rgb(191.250000,191.250000,93.886364)"/>
   <rect height="100" width="1" y="0" x="0"/>
   <rect height="1" width="100" y="0" x="0"/>
   <rect height="100" width="1" y="0" x="99"/>
   <rect height="1" width="100" y="99" x="0"/>
  </g>
  <g id="69">
   <rect height="15" width="60" y="0" x="20" fill="rgb(191.250000,191.250000,93.886364)"/>
   <rect height="15" width="60" y="85" x="20" fill="rgb(191.250000,191.250000,93.886364)"/>
   <rect height="60" width="15" y="20" x="0" fill="rgb(96.552273,96.552273,216.750000)"/>
   <rect height="60" width="15" y="20" x="85" fill="rgb(242.250000,96.900000,96.900000)"/>
   <rect height="100" width="1" y="0" x="0"/>
   <rect height="1" width="100" y="0" x="0"/>
   <rect height="100" width="1" y="0" x="99"/>
   <rect height="1" width="100" y="99" x="0"/>
  </g>
  <g id="70">
   <rect height="15" width="60" y="0" x="20" fill="rgb(191.250000,191.250000,93.886364)"/>
   <rect height="15" width="60" y="85" x="20" fill="rgb(191.250000,191.250000,93.886364)"/>
   <rect height="60" width="15" y="20" x="0" fill="rgb(96.552273,96.552273,216.750000)"/>
   <rect height="60" width="15" y="20" x="85" fill="rgb(96.552273,96.552273,216.750000)"/>
   <rect height="100" width="1" y="0" x="0"/>
   <rect height="1" width="100" y="0" x="0"/>
   <rect height="100" width="1" y="0" x="99"/>
   <rect height="1" width="100" y="99" x="0"/>
  </g>
  <g id="71">
   <rect height="15" width="60" y="0" x="20" fill="rgb(191.250000,191.250000,93.886364)"/>
   <rect height="15" width="60" y="85" x="20" fill="rgb(191.250000,191.250000,93.886364)"/>
   <rect height="60" width="15" y="20" x="0" fill="rgb(96.552273,96.552273,216.750000)"/>
   <rect height="60" width="15" y="20" x="85" fill="rgb(191.250000,191.250000,93.886364)"/>
   <rect height="100" width="1" y="0" x="0"/>
   <rect height="1" width="100" y="0" x="0"/>
   <rect height="100" width="1" y="0" x="99"/>
   <rect height="1" width="100" y="99" x="0"/>
  </g>
  <g id="72">
   <rect height="15" width="60" y="0" x="20" fill="rgb(191.250000,191.250000,93.886364)"/>
   <rect height="15" width="60" y="85" x="20" fill="rgb(242.250000,96.900000,96.900000)"/>
   <rect height="60" width="15" y="20" x="0" fill="rgb(191.250000,191.250000,93.886364)"/>
   <rect height="60" width="15" y="20" x="85" fill="rgb(242.250000,96.900000,96.900000)"/>
   <rect height="100" width="1" y="0" x="0"/>
   <rect height="1" width="100" y="0" x="0"/>
   <rect height="100" width="1" y="0" x="99"/>
   <rect height="1" width="100" y="99" x="0"/>
  </g>
  <g id="73">
   <rect height="15" width="60" y="0" x="20" fill="rgb(191.250000,191.250000,93.886364)"/>
   <rect height="15" width="60" y="85" x="20" fill="rgb(242.250000,96.900000,96.900000)"/>
   <rect height="60" width="15" y="20" x="0" fill="rgb(191.250000,191.250000,93.886364)"/>
   <rect height="60" width="15" y="20" x="85" fill="rgb(96.552273,96.552273,216.750000)"/>
   <rect height="100" width="1" y="0" x="0"/>
   <rect height="1" width="100" y="0" x="0"/>
   <rect height="100" width="1" y="0" x="99"/>
   <rect height="1" width="100" y="99" x="0"/>
  </g>
  <g id="74">
   <rect height="15" width="60" y="0" x="20" fill="rgb(191.250000,191.250000,93.886364)"/>
   <rect height="15" width="60" y="85" x="20" fill="rgb(242.250000,96.900000,96.900000)"/>
   <rect height="60" width="15" y="20" x="0" fill="rgb(191.250000,191.250000,93.886364)"/>
   <rect height="60" width="15" y="20" x="85" fill="rgb(191.250000,191.250000,93.886364)"/>
   <rect height="100" width="1" y="0" x="0"/>
   <rect height="1" width="100" y="0" x="0"/>
   <rect height="100" width="1" y="0" x="99"/>
   <rect height="1" width="100" y="99" x="0"/>
  </g>
  <g id="75">
   <rect height="15" width="60" y="0" x="20" fill="rgb(191.250000,191.250000,93.886364)"/>
   <rect height="15" width="60" y="85" x="20" fill="rgb(96.552273,96.552273,216.750000)"/>
   <rect height="60" width="15" y="20" x="0" fill="rgb(191.250000,191.250000,93.886364)"/>
   <rect height="60" width="15" y="20" x="85" fill="rgb(242.250000,96.900000,96.900000)"/>
   <rect height="100" width="1" y="0" x="0"/>
   <rect height="1" width="100" y="0" x="0"/>
   <rect height="100" width="1" y="0" x="99"/>
   <rect height="1" width="100" y="99" x="0"/>
  </g>
  <g id="76">
   <rect height="15" width="60" y="0" x="20" fill="rgb(191.250000,191.250000,93.886364)"/>
   <rect height="15" width="60" y="85" x="20" fill="rgb(96.552273,96.552273,216.750000)"/>
   <rect height="60" width="15" y="20" x="0" fill="rgb(191.250000,191.250000,93.886364)"/>
   <rect height="60" width="15" y="20" x="85" fill="rgb(96.552273,96.552273,216.750000)"/>
   <rect height="100" width="1" y="0" x="0"/>
   <rect height="1" width="100" y="0" x="0"/>
   <rect height="100" width="1" y="0" x="99"/>
   <rect height="1" width="100" y="99" x="0"/>
  </g>
  <g id="77">
   <rect height="15" width="60" y="0" x="20" fill="rgb(191.250000,191.250000,93.886364)"/>
   <rect height="15" width="60" y="85" x="20" fill="rgb(96.552273,96.552273,216.750000)"/>
   <rect height="60" width="15" y="20" x="0" fill="rgb(191.250000,191.250000,93.886364)"/>
   <rect height="60" width="15" y="20" x="85" fill="rgb(191.250000,191.250000,93.886364)"/>
   <rect height="100" width="1" y="0" x="0"/>
   <rect height="1" width="100" y="0" x="0"/>
   <rect height="100" width="1" y="0" x="99"/>
   <rect height="1" width="100" y="99" x="0"/>
  </g>
  <g id="78">
   <rect height="15" width="60" y="0" x="20" fill="rgb(191.250000,191.250000,93.886364)"/>
   <rect height="15" width="60" y="85" x="20" fill="rgb(191.250000,191.250000,93.886364)"/>
   <rect height="60" width="15" y="20" x="0" fill="rgb(191.250000,191.250000,93.886364)"/>
   <rect height="60" width="15" y="20" x="85" fill="rgb(242.250000,96.900000,96.900000)"/>
   <rect height="100" width="1" y="0" x="0"/>
   <rect height="1" width="100" y="0" x="0"/>
   <rect height="100" width="1" y="0" x="99"/>
   <rect height="1" width="100" y="99" x="0"/>
  </g>
  <g id="79">
   <rect height="15" width="60" y="0" x="20" fill="rgb(191.250000,191.250000,93.886364)"/>
   <rect height="15" width="60" y="85" x="20" fill="rgb(191.250000,191.250000,93.886364)"/>
   <rect height="60" width="15" y="20" x="0" fill="rgb(191.250000,191.250000,93.886364)"/>
   <rect height="60" width="15" y="20" x="85" fill="rgb(96.552273,96.552273,216.750000)"/>
   <rect height="100" width="1" y="0" x="0"/>
   <rect height="1" width="100" y="0" x="0"/>
   <rect height="100" width="1" y="0" x="99"/>
   <rect height="1" width="100" y="99" x="0"/>
  </g>
  <g id="80">
   <rect height="15" width="60" y="0" x="20" fill="rgb(191.250000,191.250000,93.886364)"/>
   <rect height="15" width="60" y="85" x="20" fill="rgb(191.250000,191.250000,93.886364)"/>
   <rect height="60" width="15" y="20" x="0" fill="rgb(191.250000,191.250000,93.886364)"/>
   <rect height="60" width="15" y="20" x="85" fill="rgb(191.250000,191.250000,93.886364)"/>
   <rect height="100" width="1" y="0" x="0"/>
   <rect height="1" width="100" y="0" x="0"/>
   <rect height="100" width="1" y="0" x="99"/>
   <rect height="1" width="100" y="99" x="0"/>
  </g>
 </defs>
 <use y="0.000000" x="0.000000" xlink:href="#64"/>
 <use y="0.000000" x="100.000000" xlink:href="#70"/>
 <use y="0.000000" x="200.000000" xlink:href="#44"/>
 <use y="0.000000" x="300.000000" xlink:href="#73"/>
 <use y="0.000000" x="400.000000" xlink:href="#68"/>
 <use y="0.000000" x="500.000000" xlink:href="#24"/>
 <use y="0.000000" x="600.000000" xlink:href="#8"/>
 <use y="0.000000" x="700.000000" xlink:href="#75"/>
 <use y="0.000000" x="800.000000" xlink:href="#55"/>
 <use y="100.000000" x="0.000000" xlink:href="#18"/>
 <use y="100.000000" x="100.000000" xlink:href="#58"/>
 <use y="100.000000" x="200.000000" xlink:href="#67"/>
 <use y="100.000000" x="300.000000" xlink:href="#12"/>
 <use y="100.000000" x="400.000000" xlink:href="#35"/>
 <use y="100.000000" x="500.000000" xlink:href="#74"/>
 <use y="100.000000" x="600.000000" xlink:href="#76"/>
 <use y="100.000000" x="700.000000" xlink:href="#39"/>
 <use y="100.000000" x="800.000000" xlink:href="#5"/>
 <use y="200.000000" x="0.000000" xlink:href="#9"/>
 <use y="200.000000" x="100.000000" xlink:href="#27"/>
 <use y="200.000000" x="200.000000" xlink:href="#34"/>
 <use y="200.000000" x="300.000000" xlink:href="#40"/>
 <use y="200.000000" x="400.000000" xlink:href="#69"/>
 <use y="200.000000" x="500.000000" xlink:href="#6"/>
 <use y="200.000000" x="600.000000" xlink:href="#33"/>
 <use y="200.000000" x="700.000000" xlink:href="#28"/>
 <use y="200.000000" x="800.000000" xlink:href="#43"/>
 <use y="300.000000" x="0.000000" xlink:href="#1"/>
 <use y="300.000000" x="100.000000" xlink:href="#14"/>
 <use y="300.000000" x="200.000000" xlink:href="#77"/>
 <use y="300.000000" x="300.000000" xlink:href="#45"/>
 <use y="300.000000" x="400.000000" xlink:href="#60"/>
 <use y="300.000000" x="500.000000" xlink:href="#56"/>
 <use y="300.000000" x="600.000000" xlink:href="#72"/>
 <use y="300.000000" x="700.000000" xlink:href="#0"/>
 <use y="300.000000" x="800.000000" xlink:href="#57"/>
 <use y="400.000000" x="0.000000" xlink:href="#10"/>
 <use y="400.000000" x="100.000000" xlink:href="#36"/>
 <use y="400.000000" x="200.000000" xlink:href="#31"/>
 <use y="400.000000" x="300.000000" xlink:href="#13"/>
 <use y="400.000000" x="400.000000" xlink:href="#66"/>
 <use y="400.000000" x="500.000000" xlink:href="#4"/>
 <use y="400.000000" x="600.000000" xlink:href="#11"/>
 <use y="400.000000" x="700.000000" xlink:href="#26"/>
 <use y="400.000000" x="800.000000" xlink:href="#49"/>
 <use y="500.000000" x="0.000000" xlink:href="#19"/>
 <use y="500.000000" x="100.000000" xlink:href="#15"/>
 <use y="500.000000" x="200.000000" xlink:href="#32"/>
 <use y="500.000000" x="300.000000" xlink:href="#46"/>
 <use y="500.000000" x="400.000000" xlink:href="#42"/>
 <use y="500.000000" x="500.000000" xlink:href="#30"/>
 <use y="500.000000" x="600.000000" xlink:href="#3"/>
 <use y="500.000000" x="700.000000" xlink:href="#54"/>
 <use y="500.000000" x="800.000000" xlink:href="#29"/>
 <use y="600.000000" x="0.000000" xlink:href="#16"/>
 <use y="600.000000" x="100.000000" xlink:href="#65"/>
 <use y="600.000000" x="200.000000" xlink:href="#48"/>
 <use y="600.000000" x="300.000000" xlink:href="#2"/>
 <use y="600.000000" x="400.000000" xlink:href="#80"/>
 <use y="600.000000" x="500.000000" xlink:href="#52"/>
 <use y="600.000000" x="600.000000" xlink:href="#41"/>
 <use y="600.000000" x="700.000000" xlink:href="#20"/>
 <use y="600.000000" x="800.000000" xlink:href="#25"/>
 <use y="700.000000" x="0.000000" xlink:href="#79"/>
 <use y="700.000000" x="100.000000" xlink:href="#17"/>
 <use y="700.000000" x="200.000000" xlink:href="#47"/>
 <use y="700.000000" x="300.000000" xlink:href="#22"/>
 <use y="700.000000" x="400.000000" xlink:href="#63"/>
 <use y="700.000000" x="500.000000" xlink:href="#59"/>
 <use y="700.000000" x="600.000000" xlink:href="#50"/>
 <use y="700.000000" x="700.000000" xlink:href="#21"/>
 <use y="700.000000" x="800.000000" xlink:href="#62"/>
 <use y="800.000000" x="0.000000" xlink:href="#61"/>
 <use y="800.000000" x="100.000000" xlink:href="#71"/>
 <use y="800.000000" x="200.000000" xlink:href="#23"/>
 <use y="800.000000" x="300.000000" xlink:href="#51"/>
 <use y="800.000000" x="400.000000" xlink:href="#7"/>
 <use y="800.000000" x="500.000000" xlink:href="#37"/>
 <use y="800.000000" x="600.000000" xlink:href="#38"/>
 <use y="800.000000" x="700.000000" xlink:href="#53"/>
 <use y="800.000000" x="800.000000" xlink:href="#78"/>
</svg>
