<svg xmlns="http://www.w3.org/2000/svg" height="100" width="100" version="1.1" viewBox="0 0 26.458338 26.458347">
 <rect y="13.229" x="12.965" height="13.229" width=".52917"/>
 <path d="m6.455 6.444 0.37418 0.37418-6.8287 6.8741v-0.79376z"/>
 <path d="m20.004 6.444-0.37418 0.37418 6.8287 6.8741v-0.79376z"/>
 <path d="m26.459 13.56-12.899 12.899h-0.66145l13.56-13.693z"/>
 <rect transform="scale(-1)" height=".79375" width="26.458" y="-26.458" x="-26.458" stroke-width="1.2247"/>
 <rect transform="scale(-1)" height="26.458" width=".79375" y="-26.458" x="-.79375" stroke-width="1.2247"/>
 <rect transform="scale(-1)" height="26.458" width=".26458" y="-26.458" x="-26.458" stroke-width=".70711"/>
 <rect transform="rotate(-90)" height="26.458" width=".79375" y=".0000071526" x="-.79375" stroke-width="1.2247"/>
</svg>
