<svg xmlns="http://www.w3.org/2000/svg" height="100" width="100" version="1.1" viewBox="0 0 26.458338 26.458347">
 <rect transform="scale(-1)" height="13.229" width=".52917" y="-13.229" x="-13.494"/>
 <path d="m20.004 20.019-0.37418-0.37418 6.8287-6.8741v0.79376z"/>
 <path d="m6.455 20.019 0.37418-0.37418-6.8287-6.8741v0.79376z"/>
 <path d="m0 12.899 12.899-12.899h0.66145l-13.56 13.693z"/>
 <path d="m26.459 12.899-12.899-12.899h-0.66145l13.56 13.692z"/>
 <rect height="26.458" width=".79375" y="-3.8001e-7" x="9.5367e-7" stroke-width="1.2247"/>
 <g stroke-width=".70711">
  <rect height="26.458" width=".26458" y=".0000024810" x="26.194"/>
  <rect transform="rotate(90)" height="26.458" width=".26458" y="-26.458" x="26.194"/>
  <rect transform="rotate(90)" height="26.458" width=".26458" y="-26.458" x="-3.8001e-7"/>
 </g>
</svg>
