<svg xmlns="http://www.w3.org/2000/svg" height="100" width="100" version="1.1" viewBox="0 0 26.458338 26.458347">
 <rect transform="rotate(90)" height="26.458" width=".52917" y="-26.459" x="12.965"/>
 <path d="m12.899 0-12.899 12.899v0.66145l13.693-13.56z"/>
 <g stroke-width="1.2247">
  <rect height="26.458" width=".79375" y="-.0000010059" x="-1.7764e-15"/>
  <rect height="26.458" width=".79375" y="-.0000010059" x="25.665"/>
  <rect transform="rotate(90)" height="26.458" width=".79375" y="-26.458" x="25.665"/>
 </g>
 <rect transform="rotate(90)" height="26.458" width=".26458" y="-26.458" x="-.0000010059" stroke-width=".70711"/>
</svg>
