<svg xmlns="http://www.w3.org/2000/svg" height="100" width="100" version="1.1" viewBox="0 0 26.458338 26.458347">
 <rect transform="rotate(-90)" height="13.229" width=".52917" y="13.23" x="-13.494"/>
 <path d="m6.444 20.009 0.37418-0.37418 6.8741 6.8287h-0.79376z"/>
 <path d="m6.444 6.455 0.37418 0.37418 6.8741-6.8287h-0.79376z"/>
 <path d="m13.56 0 12.898 12.898v0.66145l-13.692-13.56z"/>
 <rect height="26.458" width=".26458" y="-.0000043437" x="4.7684e-7" stroke-width=".70711"/>
 <rect height="26.458" width=".26458" y="-.0000043437" x="26.194" stroke-width=".70711"/>
 <rect transform="rotate(90)" height="26.458" width=".79375" y="-26.458" x="25.665" stroke-width="1.2247"/>
 <rect transform="rotate(90)" height="26.458" width=".26458" y="-26.458" x="-.0000043437" stroke-width=".70711"/>
</svg>
