<svg xmlns="http://www.w3.org/2000/svg" height="100" width="100" version="1.1" viewBox="0 0 26.458333 26.458334">
 <defs>
  <marker id="TriangleInS" refY="0" refX="0" orient="auto" overflow="visible">
   <path d="m5.77 0-8.65 5v-10z" fill-rule="evenodd" transform="scale(-.2)" stroke="#000" stroke-width="1pt"/>
  </marker>
  <marker id="TriangleInS-5" refY="0" refX="0" orient="auto" overflow="visible">
   <path d="m5.77 0-8.65 5v-10z" fill-rule="evenodd" transform="scale(-.2)" stroke="#000" stroke-width="1pt"/>
  </marker>
  <marker id="marker3424-6" refY="0" refX="0" orient="auto" overflow="visible">
   <path d="m5.77 0-8.65 5v-10z" fill-rule="evenodd" transform="scale(-.2)" stroke="#000" stroke-width="1pt"/>
  </marker>
  <marker id="TriangleOutS-9" refY="0" refX="0" orient="auto" overflow="visible">
   <path d="m5.77 0-8.65 5v-10z" fill-rule="evenodd" transform="scale(.2)" stroke="#000" stroke-width="1pt"/>
  </marker>
  <marker id="marker3424-62-9" refY="0" refX="0" orient="auto" overflow="visible">
   <path d="m5.77 0-8.65 5v-10z" fill-rule="evenodd" transform="scale(-.2)" stroke="#000" stroke-width="1pt"/>
  </marker>
  <marker id="TriangleOutS-1-0" refY="0" refX="0" orient="auto" overflow="visible">
   <path d="m5.77 0-8.65 5v-10z" fill-rule="evenodd" transform="scale(.2)" stroke="#000" stroke-width="1pt"/>
  </marker>
 </defs>
 <g stroke="#000" transform="translate(0 -270.54)" fill="none">
  <path d="m24.295 288.4h-24.295" marker-start="url(#TriangleInS)" stroke-width="1.2696"/>
  <path d="m8.5987 272.7v24.295" marker-start="url(#TriangleInS-5)" stroke-width="1.2695"/>
  <path marker-end="url(#TriangleOutS-9)" d="m25.707 283.77h-24.955" marker-start="url(#marker3424-6)" stroke-width=".52918"/>
  <path marker-end="url(#TriangleOutS-1-0)" d="m13.229 296.25-0.000001-24.955" marker-start="url(#marker3424-62-9)" stroke-width=".52918"/>
 </g>
</svg>
