<svg xmlns="http://www.w3.org/2000/svg" height="100" width="100" version="1.1" viewBox="0 0 26.458333 26.458334">
 <defs>
  <marker id="TriangleInS" refY="0.0" refX="0.0" overflow="visible" orient="auto">
   <path d="m5.77 0l-8.65 5v-10l8.65 5z" fill-rule="evenodd" transform="scale(-.2)" stroke="#000" stroke-width="1pt"/>
  </marker>
  <marker id="TriangleOutS-9" refY="0" refX="0" overflow="visible" orient="auto">
   <path d="m5.77 0-8.65 5v-10z" fill-rule="evenodd" transform="scale(.2)" stroke="#000" stroke-width="1pt"/>
  </marker>
  <marker id="TriangleInS-5-9" refY="0" refX="0" overflow="visible" orient="auto">
   <path d="m5.77 0-8.65 5v-10z" fill-rule="evenodd" transform="scale(-.2)" stroke="#000" stroke-width="1pt"/>
  </marker>
  <marker id="TriangleInS-5-9-6" refY="0" refX="0" overflow="visible" orient="auto">
   <path d="m5.77 0-8.65 5v-10z" fill-rule="evenodd" transform="scale(-.2)" stroke="#000" stroke-width="1pt"/>
  </marker>
  <marker id="TriangleInS-5-9-9-9-8" refY="0" refX="0" overflow="visible" orient="auto">
   <path d="m5.77 0-8.65 5v-10z" fill-rule="evenodd" transform="scale(-.2)" stroke="#000" stroke-width="1pt"/>
  </marker>
  <marker id="TriangleInS-5-9-9-5" refY="0" refX="0" overflow="visible" orient="auto">
   <path d="m5.77 0-8.65 5v-10z" fill-rule="evenodd" transform="scale(-.2)" stroke="#000" stroke-width="1pt"/>
  </marker>
 </defs>
 <g stroke="#000" fill="none" transform="matrix(1 0 0 -1 -.00019194 26.458)">
  <path d="m8.5992 1.5035v24.956" marker-start="url(#TriangleInS)" stroke-width="1.0584"/>
  <path marker-end="url(#TriangleOutS-9)" d="m13.229 26.459v-25.707" stroke-width=".52917"/>
  <path d="m1.5036 17.859h11.461" marker-start="url(#TriangleInS-5-9)" stroke-width="1.0584"/>
  <path d="m24.955 17.859h-11.461" marker-start="url(#TriangleInS-5-9-6)" stroke-width="1.0584"/>
  <path d="m12.213 13.23h-12.213" marker-start="url(#TriangleInS-5-9-9-5)" stroke-width=".52920"/>
  <path d="m14.245 13.23h12.213" marker-start="url(#TriangleInS-5-9-9-9-8)" stroke-width=".52920"/>
 </g>
</svg>
