<svg xmlns="http://www.w3.org/2000/svg" height="100" width="100" version="1.1" viewBox="0 0 26.458333 26.458334">
 <defs>
  <marker id="TriangleOutS" refY="0.0" refX="0.0" orient="auto" overflow="visible">
   <path d="m5.77 0l-8.65 5v-10l8.65 5z" fill-rule="evenodd" transform="scale(.2)" stroke="#000" stroke-width="1pt"/>
  </marker>
  <marker id="marker3424" refY="0.0" refX="0.0" overflow="visible" orient="auto">
   <path d="m5.77 0l-8.65 5v-10l8.65 5z" fill-rule="evenodd" transform="scale(-.2)" stroke="#000" stroke-width="1pt"/>
  </marker>
  <marker id="TriangleOutS-9" refY="0" refX="0" orient="auto" overflow="visible">
   <path d="m5.77 0-8.65 5v-10z" fill-rule="evenodd" transform="scale(.2)" stroke="#000" stroke-width="1pt"/>
  </marker>
  <marker id="marker3424-7" refY="0" refX="0" overflow="visible" orient="auto">
   <path d="m5.77 0-8.65 5v-10z" fill-rule="evenodd" transform="scale(-.2)" stroke="#000" stroke-width="1pt"/>
  </marker>
  <marker id="TriangleOutS-93" refY="0" refX="0" orient="auto" overflow="visible">
   <path d="m5.77 0-8.65 5v-10z" fill-rule="evenodd" transform="scale(.2)" stroke="#000" stroke-width="1pt"/>
  </marker>
  <marker id="TriangleInS-5-9-9" refY="0" refX="0" orient="auto" overflow="visible">
   <path d="m5.77 0-8.65 5v-10z" fill-rule="evenodd" transform="scale(-.2)" stroke="#000" stroke-width="1pt"/>
  </marker>
  <marker id="TriangleInS-5-9-9-9" refY="0" refX="0" orient="auto" overflow="visible">
   <path d="m5.77 0-8.65 5v-10z" fill-rule="evenodd" transform="scale(-.2)" stroke="#000" stroke-width="1pt"/>
  </marker>
  <marker id="TriangleInS-5-9-9-9-8" refY="0" refX="0" orient="auto" overflow="visible">
   <path d="m5.77 0-8.65 5v-10z" fill-rule="evenodd" transform="scale(-.2)" stroke="#000" stroke-width="1pt"/>
  </marker>
  <marker id="TriangleInS-5-9-9-5" refY="0" refX="0" orient="auto" overflow="visible">
   <path d="m5.77 0-8.65 5v-10z" fill-rule="evenodd" transform="scale(-.2)" stroke="#000" stroke-width="1pt"/>
  </marker>
  <marker id="TriangleInS-5-9-9-9-1" refY="0" refX="0" orient="auto" overflow="visible">
   <path d="m5.77 0-8.65 5v-10z" fill-rule="evenodd" transform="scale(-.2)" stroke="#000" stroke-width="1pt"/>
  </marker>
  <marker id="TriangleInS-5-9-9-6" refY="0" refX="0" orient="auto" overflow="visible">
   <path d="m5.77 0-8.65 5v-10z" fill-rule="evenodd" transform="scale(-.2)" stroke="#000" stroke-width="1pt"/>
  </marker>
 </defs>
 <g stroke="#000" fill="none">
  <path marker-end="url(#TriangleOutS)" d="m25.707 3.9687h-24.955" marker-start="url(#marker3424)" stroke-width=".52918"/>
  <path marker-end="url(#TriangleOutS-9)" d="m26.458 13.229h-25.707" stroke-width=".52917"/>
  <path marker-end="url(#TriangleOutS-93)" d="m25.707 22.49h-24.955" marker-start="url(#marker3424-7)" stroke-width=".52918"/>
  <g stroke-width=".52920">
   <path d="m3.9688 12.213v-12.213" marker-start="url(#TriangleInS-5-9-9)"/>
   <path d="m3.9688 14.245v12.213" marker-start="url(#TriangleInS-5-9-9-9)"/>
   <path d="m13.229 12.213v-12.213" marker-start="url(#TriangleInS-5-9-9-5)"/>
   <path d="m13.229 14.245v12.213" marker-start="url(#TriangleInS-5-9-9-9-8)"/>
   <path d="m22.49 12.213v-12.213" marker-start="url(#TriangleInS-5-9-9-6)"/>
   <path d="m22.49 14.245v12.213" marker-start="url(#TriangleInS-5-9-9-9-1)"/>
  </g>
 </g>
</svg>
