<svg xmlns="http://www.w3.org/2000/svg" height="100" width="100" version="1.1" viewBox="0 0 26.458333 26.458334">
 <defs>
  <marker id="TriangleInS-5-9-9" refY="0" refX="0" orient="auto" overflow="visible">
   <path d="m5.77 0-8.65 5v-10z" fill-rule="evenodd" transform="scale(-.2)" stroke="#000" stroke-width="1pt"/>
  </marker>
  <marker id="TriangleInS-5-9-9-9" refY="0" refX="0" orient="auto" overflow="visible">
   <path d="m5.77 0-8.65 5v-10z" fill-rule="evenodd" transform="scale(-.2)" stroke="#000" stroke-width="1pt"/>
  </marker>
  <marker id="TriangleInS-5-9-9-9-1" refY="0" refX="0" orient="auto" overflow="visible">
   <path d="m5.77 0-8.65 5v-10z" fill-rule="evenodd" transform="scale(-.2)" stroke="#000" stroke-width="1pt"/>
  </marker>
  <marker id="TriangleInS-5-9-9-6" refY="0" refX="0" orient="auto" overflow="visible">
   <path d="m5.77 0-8.65 5v-10z" fill-rule="evenodd" transform="scale(-.2)" stroke="#000" stroke-width="1pt"/>
  </marker>
  <marker id="TriangleInS-5-9-9-9-7" refY="0" refX="0" orient="auto" overflow="visible">
   <path d="m5.77 0-8.65 5v-10z" fill-rule="evenodd" transform="scale(-.2)" stroke="#000" stroke-width="1pt"/>
  </marker>
  <marker id="TriangleInS-5-9-9-2" refY="0" refX="0" orient="auto" overflow="visible">
   <path d="m5.77 0-8.65 5v-10z" fill-rule="evenodd" transform="scale(-.2)" stroke="#000" stroke-width="1pt"/>
  </marker>
  <marker id="TriangleInS-5-9-9-2-4" refY="0" refX="0" orient="auto" overflow="visible">
   <path d="m5.77 0-8.65 5v-10z" fill-rule="evenodd" transform="scale(-.2)" stroke="#000" stroke-width="1pt"/>
  </marker>
  <marker id="TriangleInS-5-9-9-9-7-3" refY="0" refX="0" orient="auto" overflow="visible">
   <path d="m5.77 0-8.65 5v-10z" fill-rule="evenodd" transform="scale(-.2)" stroke="#000" stroke-width="1pt"/>
  </marker>
  <marker id="TriangleOutS-9-6" refY="0" refX="0" orient="auto" overflow="visible">
   <path d="m5.77 0-8.65 5v-10z" fill-rule="evenodd" transform="scale(.2)" stroke="#000" stroke-width="1pt"/>
  </marker>
  <marker id="TriangleInS-5-9-6-3" refY="0" refX="0" orient="auto" overflow="visible">
   <path d="m5.77 0-8.65 5v-10z" fill-rule="evenodd" transform="scale(-.2)" stroke="#000" stroke-width="1pt"/>
  </marker>
  <marker id="TriangleInS-5-9-4" refY="0" refX="0" orient="auto" overflow="visible">
   <path d="m5.77 0-8.65 5v-10z" fill-rule="evenodd" transform="scale(-.2)" stroke="#000" stroke-width="1pt"/>
  </marker>
  <marker id="TriangleInS-5-9-9-5-2" refY="0" refX="0" orient="auto" overflow="visible">
   <path d="m5.77 0-8.65 5v-10z" fill-rule="evenodd" transform="scale(-.2)" stroke="#000" stroke-width="1pt"/>
  </marker>
  <marker id="TriangleInS-5-9-9-9-8-6" refY="0" refX="0" orient="auto" overflow="visible">
   <path d="m5.77 0-8.65 5v-10z" fill-rule="evenodd" transform="scale(-.2)" stroke="#000" stroke-width="1pt"/>
  </marker>
 </defs>
 <g stroke="#000" fill="none">
  <g stroke-width=".52920">
   <path d="m14.246 22.49h12.212" marker-start="url(#TriangleInS-5-9-9)"/>
   <path d="m12.213 22.49h-12.213" marker-start="url(#TriangleInS-5-9-9-9)"/>
   <path d="m14.246 3.9687h12.213" marker-start="url(#TriangleInS-5-9-9-6)"/>
   <path d="m12.213 3.9687h-12.213" marker-start="url(#TriangleInS-5-9-9-9-1)"/>
   <path d="m22.49 14.245v12.213" marker-start="url(#TriangleInS-5-9-9-2)"/>
   <path d="m22.49 12.213v-12.213" marker-start="url(#TriangleInS-5-9-9-9-7)"/>
   <path d="m3.9688 14.245v12.213" marker-start="url(#TriangleInS-5-9-9-2-4)"/>
   <path d="m3.9688 12.213v-12.213" marker-start="url(#TriangleInS-5-9-9-9-7-3)"/>
  </g>
  <path marker-end="url(#TriangleOutS-9-6)" d="m-0.000079679 13.229h25.707" stroke-width=".52917"/>
  <path d="m17.859 11.461v-11.461" marker-start="url(#TriangleInS-5-9-4)" stroke-width="1.0584"/>
  <path d="m17.859 14.997v11.461" marker-start="url(#TriangleInS-5-9-6-3)" stroke-width="1.0584"/>
  <path d="m13.229 12.213v-12.213" marker-start="url(#TriangleInS-5-9-9-5-2)" stroke-width=".52920"/>
  <path d="m13.229 14.245v12.213" marker-start="url(#TriangleInS-5-9-9-9-8-6)" stroke-width=".52920"/>
 </g>
</svg>
